{
    "identityPoolName": "cognito97504113_identitypool_7d7b653c",
    "allowUnauthenticatedIdentities": true,
    "thirdPartyAuth": false,
    "lambdaLogPolicy": "cognito97504113_lambda_log_policy",
    "openIdLambdaRoleName": "cognito97504113_openid_lambda_role",
    "openIdRolePolicy": "cognito97504113_openid_pass_role_policy",
    "openIdLambdaIAMPolicy": "cognito97504113_openid_lambda_iam_policy",
    "openIdLogPolicy": "cognito97504113_openid_lambda_log_policy",
    "userPoolName": "authenticated_users_pool",
    "autoVerifiedAttributes": [
        "email"
    ],
    "mfaConfiguration": "OPTIONAL",
    "mfaTypes": [
        "SMS Text Message"
    ],
    "roleName": "cognito97504113_sns-role",
    "roleExternalId": "cognito97504113_role_external_id",
    "policyName": "cognito97504113-sns-policy",
    "smsAuthenticationMessage": "Your authentication code is {####}",
    "smsVerificationMessage": "Your verification code is {####}",
    "emailVerificationSubject": "Your verification code",
    "emailVerificationMessage": "Your verification code is {####}",
    "defaultPasswordPolicy": false,
    "passwordPolicyMinLength": 8,
    "passwordPolicyCharacters": [
        "Requires Lowercase",
        "Requires Uppercase",
        "Requires Numbers",
        "Requires Symbols"
    ],
    "requiredAttributes": [
        "phone_number",
        "email"
    ],
    "userpoolClientName": "cognito97504113_app_client",
    "userpoolClientGenerateSecret": true,
    "userpoolClientRefreshTokenValidity": 30,
    "userpoolClientReadAttributes": [
        "email"
    ],
    "mfaLambdaRole": "cognito97504113_totp_lambda_role",
    "mfaLambdaLogPolicy": "cognito97504113_totp_lambda_log_policy",
    "mfaPassRolePolicy": "cognito97504113_totp_pass_role_policy",
    "mfaLambdaIAMPolicy": "cognito97504113_totp_lambda_iam_policy",
    "userpoolClientLambdaRole": "cognito97504113_userpoolclient_lambda_role",
    "userpoolClientLogPolicy": "cognito97504113_userpoolclient_lambda_log_policy",
    "userpoolClientLambdaPolicy": "cognito97504113_userpoolclient_lambda_iam_policy",
    "userpoolClientSetAttributes": false,
    "useDefault": "manual",
    "authSelections": "identityPoolAndUserPool",
    "resourceName": "cognito97504113",
    "unAuthRoleName": "blitzreact-20181116135755-unauthRole",
    "authRoleName": "blitzreact-20181116135755-authRole",
    "unAuthRoleArn": "arn:aws:iam::351746452477:role/blitzreact-20181116135755-unauthRole",
    "authRoleArn": "arn:aws:iam::351746452477:role/blitzreact-20181116135755-authRole"
}